{
  "environment": [],
  "name": "[ContainerName]",
  "mountPoints": [],
  "image": "registry.gitlab.com/aapjeisbaas/hello-container",
  "cpu": 0,
  "portMappings": [
    {
      "protocol": "tcp",
      "containerPort": 8080,
      "hostPort": 0
    }
  ],
  "logConfiguration": {
    "logDriver": "awslogs",
    "options": {
      "awslogs-group": "[ContainerName]",
      "awslogs-region": "eu-west-1"
    }
  },
  "memory": 50,
  "essential": true,
  "volumesFrom": []
}
